{
  "project_info": {
    "project_number": "469212878879",
    "firebase_url": "https://login-ccee4.firebaseio.com",
    "project_id": "login-ccee4",
    "storage_bucket": "login-ccee4.appspot.com"
  },
  "client": [
    {
      "client_info": {
        "mobilesdk_app_id": "1:469212878879:android:cdb7fd54238a52ef",
        "android_client_info": {
          "package_name": "com.example.monic.login"
        }
      },
      "oauth_client": [
        {
          "client_id": "469212878879-2esaf7belucfr96bghi6sji8gha9dr1h.apps.googleusercontent.com",
          "client_type": 1,
          "android_info": {
            "package_name": "com.example.monic.login",
            "certificate_hash": "f58114cbbe89a247b6d7b995efc532a9a4e2a96f"
          }
        },
        {
          "client_id": "469212878879-pv4sab3b807nm0d59ea30h97pku72k86.apps.googleusercontent.com",
          "client_type": 3
        }
      ],
      "api_key": [
        {
          "current_key": "AIzaSyA-sq4xo68WHZXIfA0tN8ywnWiVSU-V-_8"
        }
      ],
      "services": {
        "analytics_service": {
          "status": 1
        },
        "appinvite_service": {
          "status": 2,
          "other_platform_oauth_client": [
            {
              "client_id": "469212878879-pv4sab3b807nm0d59ea30h97pku72k86.apps.googleusercontent.com",
              "client_type": 3
            }
          ]
        },
        "ads_service": {
          "status": 2
        }
      }
    },
    {
      "client_info": {
        "mobilesdk_app_id": "1:469212878879:android:0277ff79fe2122cb",
        "android_client_info": {
          "package_name": "la.stadium"
        }
      },
      "oauth_client": [
        {
          "client_id": "469212878879-lt66f3au9ecdgi2gav74240a1orrj41g.apps.googleusercontent.com",
          "client_type": 1,
          "android_info": {
            "package_name": "la.stadium",
            "certificate_hash": "f58114cbbe89a247b6d7b995efc532a9a4e2a96f"
          }
        },
        {
          "client_id": "469212878879-pv4sab3b807nm0d59ea30h97pku72k86.apps.googleusercontent.com",
          "client_type": 3
        }
      ],
      "api_key": [
        {
          "current_key": "AIzaSyA-sq4xo68WHZXIfA0tN8ywnWiVSU-V-_8"
        }
      ],
      "services": {
        "analytics_service": {
          "status": 1
        },
        "appinvite_service": {
          "status": 2,
          "other_platform_oauth_client": [
            {
              "client_id": "469212878879-pv4sab3b807nm0d59ea30h97pku72k86.apps.googleusercontent.com",
              "client_type": 3
            }
          ]
        },
        "ads_service": {
          "status": 2
        }
      }
    }
  ],
  "configuration_version": "1"
}